{
  "devToolsPort": 19002,
  "expoServerPort": 19000,
  "packagerPort": 19001,
  "packagerPid": 44424,
  "expoServerNgrokUrl": "https://bw-jge.bbieler.dngo-app.exp.direct",
  "packagerNgrokUrl": "https://packager.bw-jge.bbieler.dngo-app.exp.direct",
  "ngrokPid": 44438,
  "webpackServerPort": null
}